4 Visualiser des données avec ggplot2 | Analyse de Données
…
Figure 4.17: Prix de 5000 diamants en fonction de leur taille en carats et de leur clarté.

Selon vous, à quoi sont dues les bandes verticales que l’on observe sur ce graphique ?

4.4 Les graphiques en lignes

4.4.1 Un nouveau jeu de données

Les graphiques en ligne, ou “linegraphs” sont généralement utilisés lorsque l’axe des x porte une information temporelle, et l’axe des y une autre variable numérique. Le temps est une variable naturellement ordonnée : les jours, semaines, mois, années, se suivent naturellement. Les graphiques en lignes devraient être évités lorsqu’il n’y a pas une organisation séquentielle évidente de la variable portée par l’axe des x.

Concentrons nous maintenant sur le tableau weather du package nycflights13. Explorez ce tableau en appliquant les méthodes vues dans le chapitre 3. N’oubliez pas de consultez l’aide de ce jeu de données.

weather

# A tibble: 26,115 x 15
   origin  year month   day  hour  temp  dewp humid wind_dir
   <chr>  <int> <int> <int> <int> <dbl> <dbl> <dbl>    <dbl>
 1 EWR     2013     1     1     1  39.0  26.1  59.4      270
 2 EWR     2013     1     1     2  39.0  27.0  61.6      250
 3 EWR     2013     1     1     3  39.0  28.0  64.4      240
 4 EWR     2013     1     1     4  39.9  28.0  62.2      250
 5 EWR     2013     1     1     5  39.0  28.0  64.4      260
 6 EWR     2013     1     1     6  37.9  28.0  67.2      240
 7 EWR     2013     1     1     7  39.0  28.0  64.4      240
 8 EWR     2013     1     1     8  39.9  28.0  62.2      250
 9 EWR     2013     1     1     9  39.9  28.0  62.2      260
10 EWR     2013     1     1    10  41    28.0  59.6      260
# … with 26,105 more rows, and 6 more variables: wind_speed <dbl>,
#   wind_gust <dbl>, precip <dbl>, pressure <dbl>, visib <dbl>,
#   time_hour <dttm>
…
