Analyse de Données
…
%in% : permet de tester si l’élément de gauche est contenu dans la série d’éléments fournie à droite. Par exemple 2 %in% 1:5 renvoie TRUE, mais 2 %in% 5:10 renvoie FALSE.

| : opérateur logique OU. Permet de tester qu’une condition OU une autre est remplie.

& : opérateur logique ET. Permet de tester qu’une condition ET une autre sont remplies.

Voyons comment utiliser ces opérateurs avec la fonction filter().

Dans le tableau flights, tous les vols prévus ont-ils effectivement décollé ? Une bonne façon de le savoir est de regarder si, pour la variable dep_time (heure de décollage), des données manquantes sont présentes :

flights %>% 
  filter(is.na(dep_time))

# A tibble: 8,255 x 19
    year month   day dep_time sched_dep_time dep_delay arr_time
   <int> <int> <int>    <int>          <int>     <dbl>    <int>
 1  2013     1     1       NA           1630        NA       NA
 2  2013     1     1       NA           1935        NA       NA
 3  2013     1     1       NA           1500        NA       NA
 4  2013     1     1       NA            600        NA       NA
 5  2013     1     2       NA           1540        NA       NA
 6  2013     1     2       NA           1620        NA       NA
 7  2013     1     2       NA           1355        NA       NA
 8  2013     1     2       NA           1420        NA       NA
 9  2013     1     2       NA           1321        NA       NA
10  2013     1     2       NA           1545        NA       NA
# ... with 8,245 more rows, and 12 more variables:
#   sched_arr_time <int>, arr_delay <dbl>, carrier <chr>,
#   flight <int>, tailnum <chr>, origin <chr>, dest <chr>,
#   air_time <dbl>, distance <dbl>, hour <dbl>, minute <dbl>,
#   time_hour <dttm>

Seules les lignes contenant NA dans la colonne dep_time sont retenues. Il y a donc 8255 vols qui n’ont finalement pas décollé.

Dans le même ordre d’idée, y a t-il des vols qui ont décollé mais qui ne sont pas arrivés à destination ? Là encore, une façon d’obtenir cette information est de sélectionner les vols qui ont décollé (donc pour lesquels l’heure de décollage n’est pas manquante), mais pour lesquels l’heure d’atterrissage est manquante :

flights %>% 
  filter(!is.na(dep_time),
         is.na(arr_time))

# A tibble: 458 x 19
    year month   day dep_time sched_dep_time dep_delay arr_time
   <int> <int> <int>    <int>          <int>     <dbl>    <int>
 1  2013     1     1     2016           1930        46       NA
 2  2013     1     2     2041           2045        -4       NA
 3  2013     1     2     2145           2129        16       NA
 4  2013     1     9      615            615         0       NA
 5  2013     1     9     2042           2040         2       NA
 6  2013     1    11     1344           1350        -6       NA
 7  2013     1    13     1907           1634       153       NA
 8  2013     1    13     2239           2159        40       NA
 9  2013     1    16      837            840        -3       NA
10  2013     1    25     1452           1500        -8       NA
# ... with 448 more rows, and 12 more variables:
#   sched_arr_time <int>, arr_delay <dbl>, carrier <chr>,
#   flight <int>, tailnum <chr>, origin <chr>, dest <chr>,
#   air_time <dbl>, distance <dbl>, hour <dbl>, minute <dbl>,
#   time_hour <dttm>

Notez l’utilisation du ! pour la première condition. Nous récupérons ici les lignes pour lesquelles dep_time n’est pas NA et pour lesquelles arr_time est NA. Seules les lignes qui respectent cette double condition sont retenues. Cette syntaxe est équivalente à :

flights %>% 
  filter(!is.na(dep_time) & is.na(arr_time))

# A tibble: 458 x 19
    year month   day dep_time sched_dep_time dep_delay arr_time
   <int> <int> <int>    <int>          <int>     <dbl>    <int>
 1  2013     1     1     2016           1930        46       NA
 2  2013     1     2     2041           2045        -4       NA
 3  2013     1     2     2145           2129        16       NA
 4  2013     1     9      615            615         0       NA
 5  2013     1     9     2042           2040         2       NA
 6  2013     1    11     1344           1350        -6       NA
 7  2013     1    13     1907           1634       153       NA
 8  2013     1    13     2239           2159        40       NA
 9  2013     1    16      837            840        -3       NA
10  2013     1    25     1452           1500        -8       NA
# ... with 448 more rows, and 12 more variables:
#   sched_arr_time <int>, arr_delay <dbl>, carrier <chr>,
#   flight <int>, tailnum <chr>, origin <chr>, dest <chr>,
#   air_time <dbl>, distance <dbl>, hour <dbl>, minute <dbl>,
#   time_hour <dttm>

Dans la fonction filter(), séparer plusieurs conditions par des virgules signifie que seules les lignes qui remplissent toutes les conditions seront retenues. C’est donc l’équivalent du ET logique.

Il y a donc 458 vols qui ne sont pas arrivés à destination (soit moins de 0,2% des vols au départ de New York en 2013). Selon vous, quelles raisons peuvent expliquer qu’un vol qui a décollé n’ait pas d’heure d’atterrissage ?

Enfin, pour illustrer l’utilisation de | (le OU logique) et de %in%, imaginons que nous souhaitions extraire les informations des vols ayant quitté l’aéroport JFK à destination d’Atlanta, Géorgie (ATL) et de Seatle, Washington (SEA), aux mois d’octobre, novembre et décembre :

atl_sea_fall <- flights %>% 
  filter(origin == "JFK", 
         dest == "ATL" | dest == "SEA", 
         month >= 10)
atl_sea_fall

# A tibble: 962 x 19
    year month   day dep_time sched_dep_time dep_delay arr_time
   <int> <int> <int>    <int>          <int>     <dbl>    <int>
 1  2013    10     1      638            640        -2      839
 2  2013    10     1      729            735        -6     1049
 3  2013    10     1      824            830        -6     1030
 4  2013    10     1      853            900        -7     1217
 5  2013    10     1     1328           1330        -2     1543
 6  2013    10     1     1459           1500        -1     1817
 7  2013    10     1     1544           1545        -1     1815
 8  2013    10     1     1754           1800        -6     2102
 9  2013    10     1     1825           1830        -5     2159
10  2013    10     1     1841           1840         1     2058
# ... with 952 more rows, and 12 more variables:
#   sched_arr_time <int>, arr_delay <dbl>, carrier <chr>,
#   flight <int>, tailnum <chr>, origin <chr>, dest <chr>,
#   air_time <dbl>, distance <dbl>, hour <dbl>, minute <dbl>,
#   time_hour <dttm>

Examinez ce tableau avec View() pour vérifier que la variable dest contient bien uniquement les codes ATL et SEA correspondant aux 2 aéroports qui nous intéressent. Nous avons extrait ici les vols à destination d’Atlanta et Seatle, pourtant, il nous a fallu utiliser le OU logique. Car chaque vol n’a qu’une unique destination, or nous souhaitons récupérer toutes les lignes pour lesquelles la destination est soit ATL, soit SEA (l’une ou l’autre).

Une autre solution pour obtenir le même tableau est de remplacer l’expression contenant | par une expression contenant %in% :

atl_sea_fall2 <- flights %>% 
  filter(origin == "JFK", 
         dest %in% c("ATL", "SEA"), 
         month >= 10)
atl_sea_fall2

# A tibble: 962 x 19
    year month   day dep_time sched_dep_time dep_delay arr_time
   <int> <int> <int>    <int>          <int>     <dbl>    <int>
 1  2013    10     1      638            640        -2      839
 2  2013    10     1      729            735        -6     1049
 3  2013    10     1      824            830        -6     1030
 4  2013    10     1      853            900        -7     1217
 5  2013    10     1     1328           1330        -2     1543
 6  2013    10     1     1459           1500        -1     1817
 7  2013    10     1     1544           1545        -1     1815
 8  2013    10     1     1754           1800        -6     2102
 9  2013    10     1     1825           1830        -5     2159
10  2013    10     1     1841           1840         1     2058
# ... with 952 more rows, and 12 more variables:
#   sched_arr_time <int>, arr_delay <dbl>, carrier <chr>,
#   flight <int>, tailnum <chr>, origin <chr>, dest <chr>,
#   air_time <dbl>, distance <dbl>, hour <dbl>, minute <dbl>,
#   time_hour <dttm>
…
Figure 6.6: Évolution des températures moyenne dans 3 aéroports de New York en 2013

6.5.4 Grouper par plus d’une variable

Jusqu’ici, nous avons groupé les données de température par mois. Il est tout à fait possible de grouper les données par plus d’une variable, par exemple, par mois et par aéroport d’origine :

monthly_orig_temp <- weather %>% 
  group_by(origin, month) %>% 
  summarise(moyenne = mean(temp, na.rm = TRUE),
            ecart_type = sd(temp, na.rm = TRUE),
            nb_obs = n(),
            erreur_std = ecart_type / sqrt(nb_obs))
monthly_orig_temp

# A tibble: 36 x 6
# Groups:   origin [?]
   origin month moyenne ecart_type nb_obs erreur_std
   <chr>  <dbl>   <dbl>      <dbl>  <int>      <dbl>
 1 EWR        1    35.6      10.8     742      0.396
 2 EWR        2    34.3       7.28    669      0.282
 3 EWR        3    40.1       6.72    743      0.247
 4 EWR        4    53.0       9.60    720      0.358
 5 EWR        5    63.3      10.6     744      0.389
 6 EWR        6    73.3       8.05    720      0.300
 7 EWR        7    80.7       7.37    741      0.271
 8 EWR        8    74.5       5.87    740      0.216
 9 EWR        9    67.3       9.32    719      0.348
10 EWR       10    59.8       9.79    736      0.361
# ... with 26 more rows
…
Comme avec group_by(), il est bien sûr possible d’utiliser count() avec plusieurs variables :

weather %>% 
  group_by(origin, month) %>% 
  summarise(nombre = n())

# A tibble: 36 x 3
# Groups:   origin [?]
   origin month nombre
   <chr>  <dbl>  <int>
 1 EWR        1    742
 2 EWR        2    669
 3 EWR        3    743
 4 EWR        4    720
 5 EWR        5    744
 6 EWR        6    720
 7 EWR        7    741
 8 EWR        8    740
 9 EWR        9    719
10 EWR       10    736
# ... with 26 more rows
…
Faites un tableau indiquant les vitesses de vents minimales, maximales et moyennes, enregistrées chaque mois dans chaque aéroport de New York. Votre tableau devrait ressembler à ceci :

# A tibble: 36 x 5
# Groups:   origin [?]
   origin month max_wind min_wind moy_wind
   <chr>  <dbl>    <dbl>    <dbl>    <dbl>
 1 EWR        1     42.6        0     9.87
 2 EWR        2   1048.         0    12.2 
 3 EWR        3     29.9        0    11.6 
 4 EWR        4     25.3        0     9.63
 5 EWR        5     33.4        0     8.49
 6 EWR        6     34.5        0     9.55
 7 EWR        7     20.7        0     9.15
 8 EWR        8     21.9        0     7.62
 9 EWR        9     23.0        0     8.03
10 EWR       10     26.5        0     8.32
# ... with 26 more rows

Sachant que les vitesses du vent sont exprimées en miles par heure, certaines valeurs sont-elles surprenantes ? À l’aide de la fonction filter(), éliminez la ou les valeurs aberrantes. Vous devriez obtenir ce tableau :

# A tibble: 36 x 5
# Groups:   origin [?]
   origin month max_wind min_wind moy_wind
   <chr>  <dbl>    <dbl>    <dbl>    <dbl>
 1 EWR        1     42.6        0     9.87
 2 EWR        2     31.1        0    10.7 
 3 EWR        3     29.9        0    11.6 
 4 EWR        4     25.3        0     9.63
 5 EWR        5     33.4        0     8.49
 6 EWR        6     34.5        0     9.55
 7 EWR        7     20.7        0     9.15
 8 EWR        8     21.9        0     7.62
 9 EWR        9     23.0        0     8.03
10 EWR       10     26.5        0     8.32
# ... with 26 more rows
…
Figure 6.9: Schéma de la fonction select() tiré de la ‘cheatsheet’ de dplyr et tidyr.

Il n’est pas rare de travailler avec des tableaux contenant des centaines, voir des milliers de colonnes. Dans de tels cas, il peut être utile de réduire le jeu de données aux variables qui vous intéressent. Le rôle de la fonction select() est de retenir uniquement les colonnes dont on a spécifié le nom, afin de recentrer l’analyse sur les variables utiles.

select() n’est pas particulièrement utile pour le jeu de données flights puisqu’il ne contient que 19 variables. Toutefois, on peut malgré tout comprendre le fonctionnement général. Par exemle, pour sélectionner uniquement les colonnes year, month et day, on tape :

# Sélection de variables par leur nom
flights %>% 
  select(year, month, day)

# A tibble: 336,776 x 3
    year month   day
   <int> <int> <int>
 1  2013     1     1
 2  2013     1     1
 3  2013     1     1
 4  2013     1     1
 5  2013     1     1
 6  2013     1     1
 7  2013     1     1
 8  2013     1     1
 9  2013     1     1
10  2013     1     1
# ... with 336,766 more rows

Puisque ces 3 variables sont placées les unes à côté des autres dans le tableau flights, on peut utiliser la notation : pour les sélectionner :

# Sélection de toutes les variables entre `year` et `day` (inclues)
flights %>% 
  select(year:day)

# A tibble: 336,776 x 3
    year month   day
   <int> <int> <int>
 1  2013     1     1
 2  2013     1     1
 3  2013     1     1
 4  2013     1     1
 5  2013     1     1
 6  2013     1     1
 7  2013     1     1
 8  2013     1     1
 9  2013     1     1
10  2013     1     1
# ... with 336,766 more rows

À l’inverse, si on veut supprimer certaines colonnes, on peut utiliser la notation - :

# Sélection de toutes les variables de `flights` à l'exception
# de celles comprises entre `year` et `day` (inclues)
flights %>% 
  select(-(year:day))

# A tibble: 336,776 x 16
   dep_time sched_dep_time dep_delay arr_time sched_arr_time arr_delay
      <int>          <int>     <dbl>    <int>          <int>     <dbl>
 1      517            515         2      830            819        11
 2      533            529         4      850            830        20
 3      542            540         2      923            850        33
 4      544            545        -1     1004           1022       -18
 5      554            600        -6      812            837       -25
 6      554            558        -4      740            728        12
 7      555            600        -5      913            854        19
 8      557            600        -3      709            723       -14
 9      557            600        -3      838            846        -8
10      558            600        -2      753            745         8
# ... with 336,766 more rows, and 10 more variables: carrier <chr>,
#   flight <int>, tailnum <chr>, origin <chr>, dest <chr>,
#   air_time <dbl>, distance <dbl>, hour <dbl>, minute <dbl>,
#   time_hour <dttm>
…
starts_with("abc") : renvoie toutes les variables dont les noms commencent par “abc”

ends_with("xyz") : renvoie toutes les variables dont les noms se terminent par “xyz”

contains("ijk") : renvoie toutes les variables dont les noms contiennent “ijk”

Il en existe beaucoup d’autres. Vous pouvez consulter l’aide de ?select() pour en savoir plus.

Ainsi, il est par exemple possible d’extraire toutes les variables contenant le mot “time” ainsi :

flights %>% 
  select(contains("time"))

# A tibble: 336,776 x 6
   dep_time sched_dep_time arr_time sched_arr_time air_time
      <int>          <int>    <int>          <int>    <dbl>
 1      517            515      830            819      227
 2      533            529      850            830      227
 3      542            540      923            850      160
 4      544            545     1004           1022      183
 5      554            600      812            837      116
 6      554            558      740            728      150
 7      555            600      913            854      158
 8      557            600      709            723       53
 9      557            600      838            846      140
10      558            600      753            745      138
# ... with 336,766 more rows, and 1 more variable: time_hour <dttm>

Évidemment, le tableau flights n’est pas modifié par cette opération : il contient toujours les 19 variables de départ. Pour travailler avec ces tableaux de données contenant moins de variables, il faut les stocker dans un nouvel objet en leur donnant un nom :

flights_time <- flights %>% 
  select(contains("time"))

Enfin, on peut utiliser select() pour renommer des variables. Mais ce n’est que rarement utile car select() élimine toutes les variables qui n’ont pas été explicitement nommées :

flights %>% 
  select(year:day,
         heure_depart = dep_time,
         retard_depart = dep_delay)

# A tibble: 336,776 x 5
    year month   day heure_depart retard_depart
   <int> <int> <int>        <int>         <dbl>
 1  2013     1     1          517             2
 2  2013     1     1          533             4
 3  2013     1     1          542             2
 4  2013     1     1          544            -1
 5  2013     1     1          554            -6
 6  2013     1     1          554            -4
 7  2013     1     1          555            -5
 8  2013     1     1          557            -3
 9  2013     1     1          557            -3
10  2013     1     1          558            -2
# ... with 336,766 more rows

Il est donc généralement préférable d’utiliser rename() pour renommer certaines variables sans en éliminer aucune :

flights %>% 
  rename(heure_depart = dep_time,
         retard_depart = dep_delay)

# A tibble: 336,776 x 19
    year month   day heure_depart sched_dep_time retard_depart
   <int> <int> <int>        <int>          <int>         <dbl>
 1  2013     1     1          517            515             2
 2  2013     1     1          533            529             4
 3  2013     1     1          542            540             2
 4  2013     1     1          544            545            -1
 5  2013     1     1          554            600            -6
 6  2013     1     1          554            558            -4
 7  2013     1     1          555            600            -5
 8  2013     1     1          557            600            -3
 9  2013     1     1          557            600            -3
10  2013     1     1          558            600            -2
# ... with 336,766 more rows, and 13 more variables: arr_time <int>,
#   sched_arr_time <int>, arr_delay <dbl>, carrier <chr>,
#   flight <int>, tailnum <chr>, origin <chr>, dest <chr>,
#   air_time <dbl>, distance <dbl>, hour <dbl>, minute <dbl>,
#   time_hour <dttm>
…
Figure 6.10: Schéma de la fonction mutate() tiré de la ‘cheatsheet’ de dplyr et tidyr.

La fonction mutate() permet de créer de nouvelles variables à partir des variables existantes, ou de modifier des variables déjà présentes dans un jeu de données. Il est en effet fréquent d’avoir besoin de calculer de nouvelles variables, souvent plus informatives que les variables disponibles.

Voyons un exemple. Nous commençons par créer un nouveau jeu de données flights_sml en sélectionnant uniquement les variables qui nous seront utiles :

flights_sml <- flights %>% 
  select(year:day,
         ends_with("delay"),
         distance,
         air_time)
flights_sml

# A tibble: 336,776 x 7
    year month   day dep_delay arr_delay distance air_time
   <int> <int> <int>     <dbl>     <dbl>    <dbl>    <dbl>
 1  2013     1     1         2        11     1400      227
 2  2013     1     1         4        20     1416      227
 3  2013     1     1         2        33     1089      160
 4  2013     1     1        -1       -18     1576      183
 5  2013     1     1        -6       -25      762      116
 6  2013     1     1        -4        12      719      150
 7  2013     1     1        -5        19     1065      158
 8  2013     1     1        -3       -14      229       53
 9  2013     1     1        -3        -8      944      140
10  2013     1     1        -2         8      733      138
# ... with 336,766 more rows
…
